지점번호,지점명,WMO지점번호; 47xxx,북위-10진법,동경-10진법
1470,중앙기상부,47147,36.31356,127.23738
1471,자운대,,36.40756,127.34595
1170,국방부기상대,47117,37.53097,126.97643
1171,방포3여단,,37.46294,126.89488
1172,김포포대,,34.61716,126.70855
1173,항안단,,37.50868,126.92997
1174,재경단,,37.53775,126.98674
1110,서울기상대,47111,37.45,127.1167
1111,별립산,,37.77518,126.37224
1112,매산리,,37.35995,127.26218
1113,우면산,,37.47179,127.00949
1114,덕정,,37.86951,126.98795
1115,벽제,,37.746339,126.912298
1116,법원,,37.841892,126.935839
1117,검단산,,37.458627,127.184655
1118,운천,,38.091976,127.286837
1119,파평산,,37.90742,126.87476
1200,수원기상대,47120,37.2333,127
1201,여주,471315,37.4333,127.6333
1202,덕적도,471085,37.0833,125.9667
1203,수리산,471204,37.35,126.9
1204,연평도,471034,37.7,125.7167
1205,군자,,37.35748,126.79879
1206,남양,,37.19808,126.8343
1207,인천,,37.49951,126.52386
1208,여주포대,,37.28673,127.59635
1220,오산기상대,47122,37.0833,127.0333
1221,백령,47103,37.9333,124.65
1222,팽성산,,36.961969,127.031255
1223,7전대,,36.951116,127.03614
1224,성환,,36.923222,127.15925
1225,안중,,37.00368,126.93985
1226,안성,,37.075917,127.174765
1280,청주기상대,47128,36.7,127.5
1281,성거산,,36.850658,127.226109
1282,진천포대,,36.82079,127.42011
124,성무기상대,47124,36.5667,127.5
1250,중원기상대,47125,37.0167,127.8833
1490,서산기상대,47149,16.6667,126.5833
1491,웅천,471086,36.2,126.5333
1492,망일산,47126,36.9333,126.45
1493,당진포대,,36.94803,126.5752
1494,태안포대,,36.78844,126.15527
1495,대천포대,,36.33558,126.54128
1410,군산기상대,47141,35.9,126.6167
1411,의상봉,,35.67897,126.59833
1412,군산포대,,35.903336,126.678393
1413,비인포대,,36.154785,126.562367
1580,광주기상대,47158,35.1167,126.8167
1581,모슬포,47187,33.2,126.2667
1582,나주비상활주로,,35.044757,126.817657
1583,나주포대,,35.04794,126.69884
1584,무등산포대,,35.123992,127.007587
1070,강릉기상대,47107,37.75,128.95
1071,황병산,471094,37.75,128.6667
1072,거진,471074,38.45,128.45
1073,울릉도,,37.506608,130.876896
1074,강릉포대,,37.84521,128.86653
1075,죽변비상활주로,,37.050653,129.411632
1180,원주기상대,47118,37.4333,127.95
1181,상동,471223,37.0667,128.8667
1182,대성산,471025,38.2167,127.55
1183,화악산,,37.99599,127.50309
1184,태기산,,37.60258,128.28558
1185,춘천포대,,37.83139,127.81574
1186,화악포대,,38.000339,127.539831
1187,용문산,,37.56249,127.55183
1188,가평,,37.80667,127.50644
1340,예천기상대,47134,36.6333,128.35
1341,일월산,,36.8022,129.09861
1342,낙동,,36.410326,128.284737
1343,영주포대,,36.837472,128.580613
1420,대구기상대,47142,35.8833,128.65
1421,팔공산,,36.01701,128.69499
1422,성주포대,,36.04478,128.22728
1423,포항포대,,36.070314,129.556051
1530,김해기상대,47153,35.1833,128.9333
1531,해운대포대,,35.199148,129.150325
1532,김해포대,,35.166699,128.756156
1533,울산포대,,35.561149,129.406059
1610,사천기상대,47161,35.0833,128.0833
1611,교육사,,35.79379,128.14787
1612,금오산,,34.99435,127.86984
1613,미조,,34.721925,128.025096
1614,남지,,35.425464,128.509503
