place,lat,lon,lat_index_900,lon_index_900,lat_index_1800,lon_index_1800,lat_index_3600,lon_index_3600,tower,lat_index_hsr,lon_index_hsr
147,36.31356,127.23738,540,504,1081,1008,2163,2017,147,1563,1338
111,37.45,127.1167,479,498,958,996,1917,1992,111,1318,1315
120,37.2333,127.0,491,493,982,986,1964,1973,120,1366,1295
128,36.7,127.5,519,515,1039,1030,2079,2061,128,1479,1382
124,36.5667,127.5,526,515,1053,1031,2107,2062,124,1507,1382
125,37.0167,127.8833,502,531,1004,1063,2009,2127,125,1410,1446
158,35.1167,126.8167,606,486,1212,973,2424,1946,158,1827,1267
107,37.75,128.95,461,576,922,1153,1844,2306,107,1246,1626
118,37.4333,127.95,479,534,959,1068,1918,2136,118,1318,1458
134,36.6333,128.35,522,552,1044,1105,2089,2210,134,1491,1530
142,35.8833,128.65,562,567,1125,1134,2251,2268,142,1651,1590
153,35.1833,128.9333,600,581,1200,1162,2401,2324,153,1803,1646
161,35.0833,128.0833,607,543,1214,1086,2428,2172,161,1831,1494
149,36.68333333333333,126.48333333333332,521,471,1042,942,2084,1884,149,1487,1207
